<?xml version="1.0" encoding="UTF-8" standalone="no"?>
<!-- Created with Inkscape (http://www.inkscape.org/) -->

<svg
   xmlns:dc="http://purl.org/dc/elements/1.1/"
   xmlns:cc="http://creativecommons.org/ns#"
   xmlns:rdf="http://www.w3.org/1999/02/22-rdf-syntax-ns#"
   xmlns:svg="http://www.w3.org/2000/svg"
   xmlns="http://www.w3.org/2000/svg"
   xmlns:sodipodi="http://sodipodi.sourceforge.net/DTD/sodipodi-0.dtd"
   xmlns:inkscape="http://www.inkscape.org/namespaces/inkscape"
   width="210mm"
   height="297mm"
   viewBox="0 0 744.09448819 1052.3622047"
   id="svg2"
   version="1.1"
   inkscape:version="0.91 r13725"
   sodipodi:docname="layout.svg">
  <defs
     id="defs4" />
  <sodipodi:namedview
     id="base"
     pagecolor="#ffffff"
     bordercolor="#666666"
     borderopacity="1.0"
     inkscape:pageopacity="0.0"
     inkscape:pageshadow="2"
     inkscape:zoom="0.98994949"
     inkscape:cx="288.778"
     inkscape:cy="906.90134"
     inkscape:document-units="px"
     inkscape:current-layer="layer1"
     showgrid="true"
     inkscape:snap-text-baseline="true"
     inkscape:object-nodes="true"
     inkscape:window-width="1362"
     inkscape:window-height="729"
     inkscape:window-x="1920"
     inkscape:window-y="330"
     inkscape:window-maximized="0">
    <inkscape:grid
       type="xygrid"
       id="grid4136" />
  </sodipodi:namedview>
  <metadata
     id="metadata7">
    <rdf:RDF>
      <cc:Work
         rdf:about="">
        <dc:format>image/svg+xml</dc:format>
        <dc:type
           rdf:resource="http://purl.org/dc/dcmitype/StillImage" />
        <dc:title></dc:title>
      </cc:Work>
    </rdf:RDF>
  </metadata>
  <g
     inkscape:label="Layer 1"
     inkscape:groupmode="layer"
     id="layer1">
    <text
       xml:space="preserve"
       style="font-style:normal;font-weight:normal;font-size:40px;line-height:150%;font-family:sans-serif;letter-spacing:0px;word-spacing:0px;fill:#000000;fill-opacity:1;stroke:none;stroke-width:1px;stroke-linecap:butt;stroke-linejoin:miter;stroke-opacity:1"
       x="20"
       y="22.362206"
       id="text4138"
       sodipodi:linespacing="150%"><tspan
         sodipodi:role="line"
         id="tspan4140"
         x="20"
         y="22.362206"
         style="font-style:normal;font-variant:normal;font-weight:normal;font-stretch:normal;font-size:10px;line-height:150%;font-family:'Fira Code';-inkscape-font-specification:'Fira Code'">pin component</tspan><tspan
         sodipodi:role="line"
         x="20"
         y="37.362206"
         id="tspan4142"
         style="font-style:normal;font-variant:normal;font-weight:normal;font-stretch:normal;font-size:10px;line-height:150%;font-family:'Fira Code';-inkscape-font-specification:'Fira Code'">&lt;/</tspan><tspan
         sodipodi:role="line"
         x="20"
         y="52.362206"
         id="tspan4144"
         style="font-style:normal;font-variant:normal;font-weight:normal;font-stretch:normal;font-size:10px;line-height:150%;font-family:'Fira Code';-inkscape-font-specification:'Fira Code'">{ x</tspan><tspan
         sodipodi:role="line"
         x="20"
         y="67.362206"
         id="tspan4148"
         style="font-style:normal;font-variant:normal;font-weight:normal;font-stretch:normal;font-size:10px;line-height:150%;font-family:'Fira Code';-inkscape-font-specification:'Fira Code'">,	y</tspan><tspan
         sodipodi:role="line"
         x="20"
         y="82.362206"
         style="font-style:normal;font-variant:normal;font-weight:normal;font-stretch:normal;font-size:10px;line-height:150%;font-family:'Fira Code';-inkscape-font-specification:'Fira Code'"
         id="tspan4673">,	T</tspan><tspan
         sodipodi:role="line"
         x="20"
         y="97.362206"
         id="tspan4150"
         style="font-style:normal;font-variant:normal;font-weight:normal;font-stretch:normal;font-size:10px;line-height:150%;font-family:'Fira Code';-inkscape-font-specification:'Fira Code'">,	doc</tspan><tspan
         sodipodi:role="line"
         x="20"
         y="112.36221"
         id="tspan4152"
         style="font-style:normal;font-variant:normal;font-weight:normal;font-stretch:normal;font-size:10px;line-height:150%;font-family:'Fira Code';-inkscape-font-specification:'Fira Code'">}</tspan><tspan
         sodipodi:role="line"
         x="20"
         y="127.36221"
         style="font-style:normal;font-variant:normal;font-weight:normal;font-stretch:normal;font-size:10px;line-height:150%;font-family:'Fira Code';-inkscape-font-specification:'Fira Code'"
         id="tspan6667" /><tspan
         sodipodi:role="line"
         x="20"
         y="142.3622"
         style="font-style:normal;font-variant:normal;font-weight:normal;font-stretch:normal;font-size:10px;line-height:150%;font-family:'Fira Code';-inkscape-font-specification:'Fira Code'"
         id="tspan6669" /><tspan
         sodipodi:role="line"
         x="20"
         y="157.3622"
         id="tspan4154"
         style="font-style:normal;font-variant:normal;font-weight:normal;font-stretch:normal;font-size:10px;line-height:150%;font-family:'Fira Code';-inkscape-font-specification:'Fira Code'">: detect</tspan><tspan
         sodipodi:role="line"
         x="20"
         y="172.3622"
         id="tspan4156"
         style="font-style:normal;font-variant:normal;font-weight:normal;font-stretch:normal;font-size:10px;line-height:150%;font-family:'Fira Code';-inkscape-font-specification:'Fira Code'">	 (	x</tspan><tspan
         sodipodi:role="line"
         x="20"
         y="187.3622"
         id="tspan4158"
         style="font-style:normal;font-variant:normal;font-weight:normal;font-stretch:normal;font-size:10px;line-height:150%;font-family:'Fira Code';-inkscape-font-specification:'Fira Code'">	 ,	y</tspan><tspan
         sodipodi:role="line"
         x="20"
         y="202.3622"
         id="tspan4160"
         style="font-style:normal;font-variant:normal;font-weight:normal;font-stretch:normal;font-size:10px;line-height:150%;font-family:'Fira Code';-inkscape-font-specification:'Fira Code'">	 , w</tspan><tspan
         sodipodi:role="line"
         x="20"
         y="217.3622"
         id="tspan4162"
         style="font-style:normal;font-variant:normal;font-weight:normal;font-stretch:normal;font-size:10px;line-height:150%;font-family:'Fira Code';-inkscape-font-specification:'Fira Code'">	 )</tspan><tspan
         sodipodi:role="line"
         x="20"
         y="232.3622"
         id="tspan4164"
         style="font-style:normal;font-variant:normal;font-weight:normal;font-stretch:normal;font-size:10px;line-height:150%;font-family:'Fira Code';-inkscape-font-specification:'Fira Code'">: draw</tspan><tspan
         sodipodi:role="line"
         x="20"
         y="247.3622"
         id="tspan4166"
         style="font-style:normal;font-variant:normal;font-weight:normal;font-stretch:normal;font-size:10px;line-height:150%;font-family:'Fira Code';-inkscape-font-specification:'Fira Code'">  ( w</tspan><tspan
         sodipodi:role="line"
         x="20"
         y="262.36221"
         id="tspan4168"
         style="font-style:normal;font-variant:normal;font-weight:normal;font-stretch:normal;font-size:10px;line-height:150%;font-family:'Fira Code';-inkscape-font-specification:'Fira Code'">	 , T</tspan><tspan
         sodipodi:role="line"
         x="20"
         y="277.36221"
         id="tspan4170"
         style="font-style:normal;font-variant:normal;font-weight:normal;font-stretch:normal;font-size:10px;line-height:150%;font-family:'Fira Code';-inkscape-font-specification:'Fira Code'">	 )</tspan><tspan
         sodipodi:role="line"
         x="20"
         y="292.36221"
         id="tspan4172"
         style="font-style:normal;font-variant:normal;font-weight:normal;font-stretch:normal;font-size:10px;line-height:150%;font-family:'Fira Code';-inkscape-font-specification:'Fira Code'">/&gt;</tspan></text>
    <text
       xml:space="preserve"
       style="font-style:normal;font-weight:normal;font-size:40px;line-height:150%;font-family:sans-serif;letter-spacing:0px;word-spacing:0px;fill:#000000;fill-opacity:1;stroke:none;stroke-width:1px;stroke-linecap:butt;stroke-linejoin:miter;stroke-opacity:1"
       x="340"
       y="22.362206"
       id="text4138-3"
       sodipodi:linespacing="150%"><tspan
         sodipodi:role="line"
         id="tspan4140-4"
         x="340"
         y="22.362206"
         style="font-style:normal;font-variant:normal;font-weight:normal;font-stretch:normal;font-size:10px;line-height:150%;font-family:'Fira Code';-inkscape-font-specification:'Fira Code'">visual component</tspan><tspan
         sodipodi:role="line"
         x="340"
         y="37.362206"
         id="tspan4142-2"
         style="font-style:normal;font-variant:normal;font-weight:normal;font-stretch:normal;font-size:10px;line-height:150%;font-family:'Fira Code';-inkscape-font-specification:'Fira Code'">&lt;/</tspan><tspan
         sodipodi:role="line"
         x="340"
         y="52.362206"
         id="tspan4144-2"
         style="font-style:normal;font-variant:normal;font-weight:normal;font-stretch:normal;font-size:10px;line-height:150%;font-family:'Fira Code';-inkscape-font-specification:'Fira Code'">{ x</tspan><tspan
         sodipodi:role="line"
         x="340"
         y="67.362206"
         id="tspan4146-4"
         style="font-style:normal;font-variant:normal;font-weight:normal;font-stretch:normal;font-size:10px;line-height:150%;font-family:'Fira Code';-inkscape-font-specification:'Fira Code'">,	y</tspan><tspan
         sodipodi:role="line"
         x="340"
         y="82.362206"
         id="tspan4148-5"
         style="font-style:normal;font-variant:normal;font-weight:normal;font-stretch:normal;font-size:10px;line-height:150%;font-family:'Fira Code';-inkscape-font-specification:'Fira Code'">,	w</tspan><tspan
         sodipodi:role="line"
         x="340"
         y="97.362206"
         id="tspan4150-1"
         style="font-style:normal;font-variant:normal;font-weight:normal;font-stretch:normal;font-size:10px;line-height:150%;font-family:'Fira Code';-inkscape-font-specification:'Fira Code'">,	h</tspan><tspan
         sodipodi:role="line"
         x="340"
         y="112.36221"
         style="font-style:normal;font-variant:normal;font-weight:normal;font-stretch:normal;font-size:10px;line-height:150%;font-family:'Fira Code';-inkscape-font-specification:'Fira Code'"
         id="tspan4669">, b</tspan><tspan
         sodipodi:role="line"
         x="340"
         y="127.36221"
         style="font-style:normal;font-variant:normal;font-weight:normal;font-stretch:normal;font-size:10px;line-height:150%;font-family:'Fira Code';-inkscape-font-specification:'Fira Code'"
         id="tspan4743">, a</tspan><tspan
         sodipodi:role="line"
         x="340"
         y="142.3622"
         id="tspan4162-9"
         style="font-style:normal;font-variant:normal;font-weight:normal;font-stretch:normal;font-size:10px;line-height:150%;font-family:'Fira Code';-inkscape-font-specification:'Fira Code'">}</tspan><tspan
         sodipodi:role="line"
         x="340"
         y="157.3622"
         id="tspan4164-8"
         style="font-style:normal;font-variant:normal;font-weight:normal;font-stretch:normal;font-size:10px;line-height:150%;font-family:'Fira Code';-inkscape-font-specification:'Fira Code'"></tspan><tspan
         sodipodi:role="line"
         x="340"
         y="172.3622"
         style="font-style:normal;font-variant:normal;font-weight:normal;font-stretch:normal;font-size:10px;line-height:150%;font-family:'Fira Code';-inkscape-font-specification:'Fira Code'"
         id="tspan6675"></tspan><tspan
         sodipodi:role="line"
         x="340"
         y="187.3622"
         style="font-style:normal;font-variant:normal;font-weight:normal;font-stretch:normal;font-size:10px;line-height:150%;font-family:'Fira Code';-inkscape-font-specification:'Fira Code'"
         id="tspan6677"></tspan><tspan
         sodipodi:role="line"
         x="340"
         y="202.3622"
         style="font-style:normal;font-variant:normal;font-weight:normal;font-stretch:normal;font-size:10px;line-height:150%;font-family:'Fira Code';-inkscape-font-specification:'Fira Code'"
         id="tspan6679"></tspan><tspan
         sodipodi:role="line"
         x="340"
         y="217.3622"
         style="font-style:normal;font-variant:normal;font-weight:normal;font-stretch:normal;font-size:10px;line-height:150%;font-family:'Fira Code';-inkscape-font-specification:'Fira Code'"
         id="tspan6681"></tspan><tspan
         sodipodi:role="line"
         x="340"
         y="232.3622"
         style="font-style:normal;font-variant:normal;font-weight:normal;font-stretch:normal;font-size:10px;line-height:150%;font-family:'Fira Code';-inkscape-font-specification:'Fira Code'"
         id="tspan6683">: draw</tspan><tspan
         sodipodi:role="line"
         x="340"
         y="247.3622"
         id="tspan4168-3"
         style="font-style:normal;font-variant:normal;font-weight:normal;font-stretch:normal;font-size:10px;line-height:150%;font-family:'Fira Code';-inkscape-font-specification:'Fira Code'">  ( </tspan><tspan
         sodipodi:role="line"
         x="340"
         y="262.36221"
         id="tspan4170-3"
         style="font-style:normal;font-variant:normal;font-weight:normal;font-stretch:normal;font-size:10px;line-height:150%;font-family:'Fira Code';-inkscape-font-specification:'Fira Code'">	 )</tspan><tspan
         sodipodi:role="line"
         x="340"
         y="277.36221"
         id="tspan4172-3"
         style="font-style:normal;font-variant:normal;font-weight:normal;font-stretch:normal;font-size:10px;line-height:150%;font-family:'Fira Code';-inkscape-font-specification:'Fira Code'">/&gt;</tspan></text>
    <text
       xml:space="preserve"
       style="font-style:normal;font-weight:normal;font-size:40px;line-height:150%;font-family:sans-serif;letter-spacing:0px;word-spacing:0px;fill:#000000;fill-opacity:1;stroke:none;stroke-width:1px;stroke-linecap:butt;stroke-linejoin:miter;stroke-opacity:1"
       x="80"
       y="22.362206"
       id="text4138-7"
       sodipodi:linespacing="150%"><tspan
         sodipodi:role="line"
         id="tspan4140-9"
         x="80"
         y="22.362206"
         style="font-style:normal;font-variant:normal;font-weight:normal;font-stretch:normal;font-size:10px;line-height:150%;font-family:'Fira Code';-inkscape-font-specification:'Fira Code'" /><tspan
         sodipodi:role="line"
         x="80"
         y="37.362206"
         id="tspan4142-8"
         style="font-style:normal;font-variant:normal;font-weight:normal;font-stretch:normal;font-size:10px;line-height:150%;font-family:'Fira Code';-inkscape-font-specification:'Fira Code'" /><tspan
         sodipodi:role="line"
         x="80"
         y="52.362206"
         id="tspan4144-6"
         style="font-style:normal;font-variant:normal;font-weight:normal;font-stretch:normal;font-size:10px;line-height:150%;font-family:'Fira Code';-inkscape-font-specification:'Fira Code'">relative x pos</tspan><tspan
         sodipodi:role="line"
         x="80"
         y="67.362206"
         id="tspan4148-7"
         style="font-style:normal;font-variant:normal;font-weight:normal;font-stretch:normal;font-size:10px;line-height:150%;font-family:'Fira Code';-inkscape-font-specification:'Fira Code'">relative y pos</tspan><tspan
         sodipodi:role="line"
         x="80"
         y="82.362206"
         style="font-style:normal;font-variant:normal;font-weight:normal;font-stretch:normal;font-size:10px;line-height:150%;font-family:'Fira Code';-inkscape-font-specification:'Fira Code'"
         id="tspan4673-0">default type name</tspan><tspan
         sodipodi:role="line"
         x="80"
         y="97.362206"
         id="tspan4150-4"
         style="font-style:normal;font-variant:normal;font-weight:normal;font-stretch:normal;font-size:10px;line-height:150%;font-family:'Fira Code';-inkscape-font-specification:'Fira Code'">documentation reference</tspan><tspan
         sodipodi:role="line"
         x="80"
         y="112.36221"
         id="tspan4152-8"
         style="font-style:normal;font-variant:normal;font-weight:normal;font-stretch:normal;font-size:10px;line-height:150%;font-family:'Fira Code';-inkscape-font-specification:'Fira Code'" /><tspan
         sodipodi:role="line"
         x="80"
         y="127.36221"
         id="tspan4154-4"
         style="font-style:normal;font-variant:normal;font-weight:normal;font-stretch:normal;font-size:10px;line-height:150%;font-family:'Fira Code';-inkscape-font-specification:'Fira Code'" /><tspan
         sodipodi:role="line"
         x="80"
         y="142.3622"
         id="tspan4156-8"
         style="font-style:normal;font-variant:normal;font-weight:normal;font-stretch:normal;font-size:10px;line-height:150%;font-family:'Fira Code';-inkscape-font-specification:'Fira Code'"></tspan><tspan
         sodipodi:role="line"
         x="80"
         y="157.3622"
         style="font-style:normal;font-variant:normal;font-weight:normal;font-stretch:normal;font-size:10px;line-height:150%;font-family:'Fira Code';-inkscape-font-specification:'Fira Code'"
         id="tspan6671"></tspan><tspan
         sodipodi:role="line"
         x="80"
         y="172.3622"
         style="font-style:normal;font-variant:normal;font-weight:normal;font-stretch:normal;font-size:10px;line-height:150%;font-family:'Fira Code';-inkscape-font-specification:'Fira Code'"
         id="tspan6673">x pos relative to node instance</tspan><tspan
         sodipodi:role="line"
         x="80"
         y="187.3622"
         id="tspan4158-1"
         style="font-style:normal;font-variant:normal;font-weight:normal;font-stretch:normal;font-size:10px;line-height:150%;font-family:'Fira Code';-inkscape-font-specification:'Fira Code'">y pos relative to node instance</tspan><tspan
         sodipodi:role="line"
         x="80"
         y="202.3622"
         id="tspan4160-6"
         style="font-style:normal;font-variant:normal;font-weight:normal;font-stretch:normal;font-size:10px;line-height:150%;font-family:'Fira Code';-inkscape-font-specification:'Fira Code'">node instance width</tspan><tspan
         sodipodi:role="line"
         x="80"
         y="217.3622"
         id="tspan4162-8"
         style="font-style:normal;font-variant:normal;font-weight:normal;font-stretch:normal;font-size:10px;line-height:150%;font-family:'Fira Code';-inkscape-font-specification:'Fira Code'" /><tspan
         sodipodi:role="line"
         x="80"
         y="232.3622"
         id="tspan4164-5"
         style="font-style:normal;font-variant:normal;font-weight:normal;font-stretch:normal;font-size:10px;line-height:150%;font-family:'Fira Code';-inkscape-font-specification:'Fira Code'" /><tspan
         sodipodi:role="line"
         x="80"
         y="247.3622"
         id="tspan4166-2"
         style="font-style:normal;font-variant:normal;font-weight:normal;font-stretch:normal;font-size:10px;line-height:150%;font-family:'Fira Code';-inkscape-font-specification:'Fira Code'">node instance width</tspan><tspan
         sodipodi:role="line"
         x="80"
         y="262.36221"
         id="tspan4172-9"
         style="font-style:normal;font-variant:normal;font-weight:normal;font-stretch:normal;font-size:10px;line-height:150%;font-family:'Fira Code';-inkscape-font-specification:'Fira Code'">type name</tspan></text>
    <text
       xml:space="preserve"
       style="font-style:normal;font-weight:normal;font-size:40px;line-height:150%;font-family:sans-serif;letter-spacing:0px;word-spacing:0px;fill:#000000;fill-opacity:1;stroke:none;stroke-width:1px;stroke-linecap:butt;stroke-linejoin:miter;stroke-opacity:1"
       x="400"
       y="22.362206"
       id="text4138-7-0"
       sodipodi:linespacing="150%"><tspan
         sodipodi:role="line"
         id="tspan4140-9-3"
         x="400"
         y="22.362206"
         style="font-style:normal;font-variant:normal;font-weight:normal;font-stretch:normal;font-size:10px;line-height:150%;font-family:'Fira Code';-inkscape-font-specification:'Fira Code'" /><tspan
         sodipodi:role="line"
         x="400"
         y="37.362206"
         id="tspan4142-8-4"
         style="font-style:normal;font-variant:normal;font-weight:normal;font-stretch:normal;font-size:10px;line-height:150%;font-family:'Fira Code';-inkscape-font-specification:'Fira Code'" /><tspan
         sodipodi:role="line"
         x="400"
         y="52.362206"
         id="tspan4144-6-6"
         style="font-style:normal;font-variant:normal;font-weight:normal;font-stretch:normal;font-size:10px;line-height:150%;font-family:'Fira Code';-inkscape-font-specification:'Fira Code'">relative x pos</tspan><tspan
         sodipodi:role="line"
         x="400"
         y="67.362206"
         id="tspan4148-7-6"
         style="font-style:normal;font-variant:normal;font-weight:normal;font-stretch:normal;font-size:10px;line-height:150%;font-family:'Fira Code';-inkscape-font-specification:'Fira Code'">relative y pos</tspan><tspan
         sodipodi:role="line"
         x="400"
         y="82.362206"
         style="font-style:normal;font-variant:normal;font-weight:normal;font-stretch:normal;font-size:10px;line-height:150%;font-family:'Fira Code';-inkscape-font-specification:'Fira Code'"
         id="tspan4673-0-0">default type name</tspan><tspan
         sodipodi:role="line"
         x="400"
         y="97.362206"
         id="tspan4150-4-2"
         style="font-style:normal;font-variant:normal;font-weight:normal;font-stretch:normal;font-size:10px;line-height:150%;font-family:'Fira Code';-inkscape-font-specification:'Fira Code'">documentation reference</tspan><tspan
         sodipodi:role="line"
         x="400"
         y="112.36221"
         id="tspan4152-8-5"
         style="font-style:normal;font-variant:normal;font-weight:normal;font-stretch:normal;font-size:10px;line-height:150%;font-family:'Fira Code';-inkscape-font-specification:'Fira Code'" /><tspan
         sodipodi:role="line"
         x="400"
         y="127.36221"
         id="tspan4154-4-8"
         style="font-style:normal;font-variant:normal;font-weight:normal;font-stretch:normal;font-size:10px;line-height:150%;font-family:'Fira Code';-inkscape-font-specification:'Fira Code'" /><tspan
         sodipodi:role="line"
         x="400"
         y="142.36221"
         id="tspan4156-8-9"
         style="font-style:normal;font-variant:normal;font-weight:normal;font-stretch:normal;font-size:10px;line-height:150%;font-family:'Fira Code';-inkscape-font-specification:'Fira Code'" /><tspan
         sodipodi:role="line"
         x="400"
         y="157.36221"
         style="font-style:normal;font-variant:normal;font-weight:normal;font-stretch:normal;font-size:10px;line-height:150%;font-family:'Fira Code';-inkscape-font-specification:'Fira Code'"
         id="tspan6671-5" /><tspan
         sodipodi:role="line"
         x="400"
         y="172.36221"
         style="font-style:normal;font-variant:normal;font-weight:normal;font-stretch:normal;font-size:10px;line-height:150%;font-family:'Fira Code';-inkscape-font-specification:'Fira Code'"
         id="tspan6673-0">x pos relative to node instance</tspan><tspan
         sodipodi:role="line"
         x="400"
         y="187.36221"
         id="tspan4158-1-6"
         style="font-style:normal;font-variant:normal;font-weight:normal;font-stretch:normal;font-size:10px;line-height:150%;font-family:'Fira Code';-inkscape-font-specification:'Fira Code'">y pos relative to node instance</tspan><tspan
         sodipodi:role="line"
         x="400"
         y="202.36221"
         id="tspan4160-6-0"
         style="font-style:normal;font-variant:normal;font-weight:normal;font-stretch:normal;font-size:10px;line-height:150%;font-family:'Fira Code';-inkscape-font-specification:'Fira Code'">node instance width</tspan><tspan
         sodipodi:role="line"
         x="400"
         y="217.36221"
         id="tspan4162-8-8"
         style="font-style:normal;font-variant:normal;font-weight:normal;font-stretch:normal;font-size:10px;line-height:150%;font-family:'Fira Code';-inkscape-font-specification:'Fira Code'" /><tspan
         sodipodi:role="line"
         x="400"
         y="232.36221"
         id="tspan4164-5-3"
         style="font-style:normal;font-variant:normal;font-weight:normal;font-stretch:normal;font-size:10px;line-height:150%;font-family:'Fira Code';-inkscape-font-specification:'Fira Code'" /><tspan
         sodipodi:role="line"
         x="400"
         y="247.36221"
         id="tspan4166-2-7"
         style="font-style:normal;font-variant:normal;font-weight:normal;font-stretch:normal;font-size:10px;line-height:150%;font-family:'Fira Code';-inkscape-font-specification:'Fira Code'">node instance width</tspan><tspan
         sodipodi:role="line"
         x="400"
         y="262.36221"
         id="tspan4172-9-8"
         style="font-style:normal;font-variant:normal;font-weight:normal;font-stretch:normal;font-size:10px;line-height:150%;font-family:'Fira Code';-inkscape-font-specification:'Fira Code'">type name</tspan></text>
  </g>
</svg>
